// Jest Snapshot v1, https://goo.gl/fbAQLP

exports[`Tos screen render and accept 1`] = `
<View>
  <View
    style={
      Object {
        "transform": Array [
          Object {
            "translateY": 0,
          },
        ],
      }
    }
  >
    <View
      style={
        Array [
          Object {
            "borderColor": "#414C57",
          },
          Object {
            "borderBottomWidth": 1,
          },
          Object {
            "minHeight": 55,
            "zIndex": 1,
          },
        ]
      }
    >
      <View
        style={
          Array [
            Object {
              "bottom": 0,
              "left": 0,
              "position": "absolute",
              "right": 0,
              "top": 0,
            },
            Object {
              "alignContent": "center",
              "alignItems": "center",
              "alignSelf": "center",
              "justifyContent": "center",
            },
            Object {
              "minHeight": 55,
            },
          ]
        }
      >
        <Text
          style={
            Array [
              Object {
                "color": "#FFFFFF",
              },
              Object {
                "fontFamily": "Roboto-Bold",
              },
              Object {
                "fontSize": 24,
                "lineHeight": 32,
              },
              Object {
                "textAlign": "left",
              },
              Object {
                "lineHeight": 26,
              },
            ]
          }
        >
          TOS Update
        </Text>
      </View>
      <View
        style={
          Object {
            "alignItems": "center",
            "flexDirection": "row",
            "justifyContent": "space-between",
            "margin": 16,
          }
        }
      >
        <View
          style={
            Array [
              Object {
                "flexDirection": "row",
                "justifyContent": "flex-start",
              },
            ]
          }
        />
        <View />
      </View>
    </View>
  </View>
  <View
    style={
      Object {
        "flex": 1,
      }
    }
  >
    <RCTScrollView
      contentContainerStyle={
        Array [
          Object {
            "padding": 12,
          },
          Object {
            "paddingTop": 24,
          },
        ]
      }
    >
      <View>
        <Text
          style={
            Array [
              Object {
                "color": "#FFFFFF",
              },
              Object {
                "fontFamily": "Roboto",
              },
              Object {
                "fontSize": 16,
                "lineHeight": 24,
              },
              Object {
                "textAlign": "justify",
              },
            ]
          }
        >
          We've recently updated our
           
          <Text
            accessible={true}
            focusable={true}
            hitSlop={
              Object {
                "bottom": 4,
                "left": 4,
                "right": 4,
                "top": 4,
              }
            }
            onClick={[Function]}
            onResponderGrant={[Function]}
            onResponderMove={[Function]}
            onResponderRelease={[Function]}
            onResponderTerminate={[Function]}
            onResponderTerminationRequest={[Function]}
            onStartShouldSetResponder={[Function]}
            style={
              Array [
                Object {
                  "color": "#1B85D6",
                },
                Object {
                  "fontFamily": "Roboto",
                },
                Object {
                  "fontSize": 16,
                  "lineHeight": 24,
                },
                Object {
                  "textAlign": "left",
                },
              ]
            }
          >
            Terms of Service
          </Text>
           and 
          <Text
            accessible={true}
            focusable={true}
            hitSlop={
              Object {
                "bottom": 4,
                "left": 4,
                "right": 4,
                "top": 4,
              }
            }
            onClick={[Function]}
            onResponderGrant={[Function]}
            onResponderMove={[Function]}
            onResponderRelease={[Function]}
            onResponderTerminate={[Function]}
            onResponderTerminationRequest={[Function]}
            onStartShouldSetResponder={[Function]}
            style={
              Array [
                Object {
                  "color": "#1B85D6",
                },
                Object {
                  "fontFamily": "Roboto",
                },
                Object {
                  "fontSize": 16,
                  "lineHeight": 24,
                },
                Object {
                  "textAlign": "left",
                },
              ]
            }
          >
            Content Policy
          </Text>
           
          to reflect the changes to our network
        </Text>
        <View
          style={
            Object {
              "marginTop": 16,
            }
          }
        >
          <Text
            style={
              Array [
                Object {
                  "color": "#FFFFFF",
                },
                Object {
                  "fontFamily": "Roboto",
                },
                Object {
                  "fontSize": 16,
                  "lineHeight": 24,
                },
                Object {
                  "textAlign": "justify",
                },
              ]
            }
          >
            Please also note that your continued use of Minds serves as acceptance of these new terms and policies. Thank you.
          </Text>
        </View>
        <View
          style={
            Object {
              "marginTop": 56,
            }
          }
        >
          <View
            accessible={true}
            collapsable={false}
            focusable={true}
            onBlur={[Function]}
            onClick={[Function]}
            onFocus={[Function]}
            onResponderGrant={[Function]}
            onResponderMove={[Function]}
            onResponderRelease={[Function]}
            onResponderTerminate={[Function]}
            onResponderTerminationRequest={[Function]}
            onStartShouldSetResponder={[Function]}
            style={
              Object {
                "alignSelf": "stretch",
              }
            }
            testID="accept"
          >
            <View
              style={
                Array [
                  Object {
                    "alignItems": "center",
                    "backgroundColor": "transparent",
                    "borderRadius": 100,
                    "flexDirection": "column",
                    "justifyContent": "center",
                    "overflow": "hidden",
                  },
                  undefined,
                  Object {
                    "minHeight": 42,
                    "paddingHorizontal": 24,
                    "paddingVertical": 2,
                  },
                  undefined,
                  undefined,
                  undefined,
                  false,
                ]
              }
            >
              <View
                style={
                  Object {
                    "alignItems": "center",
                    "backgroundColor": "#1B85D6",
                    "borderColor": "transparent",
                    "borderRadius": 100,
                    "borderWidth": 1,
                    "bottom": 0,
                    "justifyContent": "center",
                    "left": 0,
                    "position": "absolute",
                    "right": 0,
                    "top": 0,
                  }
                }
              />
              <View
                collapsable={false}
                style={
                  Object {
                    "backgroundColor": "rgba(0, 0, 0, 0.1)",
                    "bottom": 0,
                    "left": 0,
                    "opacity": 0,
                    "position": "absolute",
                    "right": 0,
                    "top": 0,
                  }
                }
              />
              <View
                collapsable={false}
                style={
                  Object {
                    "transform": Array [
                      Object {
                        "scale": 1,
                      },
                    ],
                  }
                }
              >
                <Text
                  numberOfLines={1}
                  style={
                    Array [
                      Object {
                        "color": "#FFFFFF",
                      },
                      Object {
                        "fontFamily": "Roboto-Medium",
                      },
                      Object {
                        "fontSize": 18,
                        "lineHeight": 24,
                      },
                      Object {
                        "textAlign": "left",
                      },
                    ]
                  }
                >
                  Accept
                </Text>
              </View>
            </View>
          </View>
        </View>
      </View>
    </RCTScrollView>
  </View>
</View>
`;
