// Jest Snapshot v1, https://goo.gl/fbAQLP

exports[`Boost action component renders correctly 1`] = `
<View
  style={
    Array [
      Object {
        "alignItems": "center",
        "justifyContent": "center",
        "position": "relative",
      },
      undefined,
      Array [
        Object {
          "flex": 1,
          "flexDirection": "column",
        },
        Object {
          "margin": 4,
        },
        Object {
          "paddingVertical": 12,
        },
        Object {
          "alignItems": "center",
        },
      ],
    ]
  }
>
  <View
    accessible={true}
    collapsable={false}
    focusable={true}
    hitSlop={6.666666666666666}
    onBlur={[Function]}
    onClick={[Function]}
    onFocus={[Function]}
    onResponderGrant={[Function]}
    onResponderMove={[Function]}
    onResponderRelease={[Function]}
    onResponderTerminate={[Function]}
    onResponderTerminationRequest={[Function]}
    onStartShouldSetResponder={[Function]}
    style={
      Array [
        Object {
          "alignItems": "center",
          "justifyContent": "center",
        },
        Object {
          "alignItems": "center",
          "bottom": 0,
          "justifyContent": "center",
          "left": 0,
          "position": "absolute",
          "right": 0,
          "top": 0,
        },
      ]
    }
    testID="Boost"
  >
    <View
      collapsable={false}
      style={
        Object {
          "transform": Array [
            Object {
              "scale": 1,
            },
          ],
        }
      }
    >
      <View
        style={
          Object {
            "alignItems": "center",
            "flexDirection": "row",
            "justifyContent": "center",
          }
        }
      >
        <View
          style={
            Object {
              "alignItems": "center",
              "flexDirection": "row",
              "height": 20,
              "justifyContent": "center",
              "overflow": "hidden",
              "width": 20,
            }
          }
        >
          <Text
            allowFontScaling={false}
            selectable={false}
            style={
              Array [
                Object {
                  "color": "#AEB0B8",
                  "fontSize": 20.8,
                },
                undefined,
                Object {
                  "fontFamily": "Material Design Icons",
                  "fontStyle": "normal",
                  "fontWeight": "normal",
                },
                Object {},
              ]
            }
          >
            󰔵
          </Text>
        </View>
      </View>
    </View>
  </View>
</View>
`;
