// Jest Snapshot v1, https://goo.gl/fbAQLP

exports[`activity metrics component renders correctly 1`] = `
<View
  style={
    Array [
      Object {
        "flexDirection": "row",
        "justifyContent": "space-between",
      },
      Object {
        "padding": 8,
      },
      Object {
        "paddingHorizontal": 16,
      },
    ]
  }
>
  <Text
    style={
      Array [
        Object {
          "color": "#FFFFFF",
        },
        Object {
          "fontFamily": "Roboto",
        },
        Array [
          Object {
            "color": "#B8C1CA",
          },
          Object {
            "fontSize": 14,
          },
          Object {
            "paddingVertical": 4,
          },
        ],
      ]
    }
  >
    20 views · 
    Mar 25, 2018
  </Text>
</View>
`;
