// Jest Snapshot v1, https://goo.gl/fbAQLP

exports[`Activity screen component renders correctly  1`] = `
<View
  style={
    Array [
      Object {
        "fontScale": 2,
        "height": 1334,
        "scale": 2,
        "width": 750,
      },
      Object {
        "flex": 1,
      },
      Object {
        "backgroundColor": "#1F252C",
      },
    ]
  }
  testID="ActivityScreen"
>
  <View
    style={
      Object {
        "flex": 1,
      }
    }
  >
    <View
      style={
        Array [
          Object {
            "backgroundColor": "#1F252C",
          },
          Object {
            "borderBottomWidth": 0,
            "shadowColor": "#000",
            "shadowOffset": Object {
              "height": 1,
              "width": 0,
            },
            "shadowOpacity": 0.22,
            "shadowRadius": 2.22,
          },
          Object {
            "paddingTop": -10,
          },
        ]
      }
    >
      <View
        style={
          Array [
            Object {
              "borderBottomWidth": 0.5,
            },
            Object {
              "borderColor": "#414C57",
            },
            undefined,
          ]
        }
      >
        <View
          style={
            Object {
              "alignItems": "center",
              "display": "flex",
              "flexDirection": "row",
              "paddingHorizontal": 16,
              "paddingVertical": 13,
            }
          }
        >
          <View
            style={
              Object {
                "alignItems": "center",
                "color": "#FFFFFF",
                "elevation": 4,
                "justifyContent": "center",
                "left": 0,
                "marginLeft": -20,
                "marginRight": -5,
                "paddingTop": 0,
                "position": undefined,
                "shadowOffset": Object {
                  "height": 1,
                  "width": 1,
                },
                "shadowOpacity": 0.2,
                "shadowRadius": 3,
                "top": undefined,
                "width": 50,
              }
            }
          >
            <View
              accessible={true}
              collapsable={false}
              focusable={true}
              hitSlop={13.333333333333332}
              onBlur={[Function]}
              onClick={[Function]}
              onFocus={[Function]}
              onResponderGrant={[Function]}
              onResponderMove={[Function]}
              onResponderRelease={[Function]}
              onResponderTerminate={[Function]}
              onResponderTerminationRequest={[Function]}
              onStartShouldSetResponder={[Function]}
              style={
                Object {
                  "alignItems": "center",
                  "justifyContent": "center",
                }
              }
              testID="floatingBackButton"
            >
              <View
                style={
                  Object {
                    "alignItems": "center",
                    "flexDirection": "row",
                    "justifyContent": "center",
                  }
                }
              >
                <View
                  style={
                    Array [
                      Object {
                        "alignItems": "center",
                        "flexDirection": "row",
                        "height": 40,
                        "justifyContent": "center",
                        "overflow": "hidden",
                        "width": 40,
                      },
                    ]
                  }
                >
                  <Text
                    allowFontScaling={false}
                    selectable={false}
                    style={
                      Array [
                        Object {
                          "color": "#AEB0B8",
                          "fontSize": 40,
                        },
                        Object {},
                        Object {
                          "fontFamily": "Material Design Icons",
                          "fontStyle": "normal",
                          "fontWeight": "normal",
                        },
                        Object {},
                      ]
                    }
                  >
                    󰅁
                  </Text>
                </View>
              </View>
            </View>
          </View>
          <View
            onPress={[Function]}
          >
            <Image
              source={
                Object {
                  "headers": Object {
                    "App-Version": "3.8.0",
                    "Cache-Control": "no-cache, no-store, must-revalidate",
                    "Content-Type": "application/json",
                    "Pragma": "no-cache",
                    "no-cache": "1",
                  },
                  "uri": "https://cdn.minds.com/icon/824853017709780997/medium/undefined",
                }
              }
              style={
                Object {
                  "borderRadius": 18.5,
                  "height": 37,
                  "width": 37,
                }
              }
            />
          </View>
          <View
            style={
              Object {
                "flex": 1,
                "marginLeft": 10,
                "paddingRight": 5,
              }
            }
          >
            <View
              style={
                Object {
                  "flexDirection": "column",
                }
              }
            >
              <View
                pointerEvents="box-none"
                style={
                  Array [
                    Object {
                      "flexDirection": "row",
                      "justifyContent": "flex-start",
                    },
                    Object {
                      "alignItems": "center",
                    },
                  ]
                }
              >
                <Text
                  accessible={true}
                  focusable={true}
                  hitSlop={
                    Object {
                      "bottom": 4,
                      "left": 4,
                      "right": 4,
                      "top": 4,
                    }
                  }
                  numberOfLines={1}
                  onClick={[Function]}
                  onResponderGrant={[Function]}
                  onResponderMove={[Function]}
                  onResponderRelease={[Function]}
                  onResponderTerminate={[Function]}
                  onResponderTerminationRequest={[Function]}
                  onStartShouldSetResponder={[Function]}
                  style={
                    Array [
                      Object {
                        "color": "#FFFFFF",
                      },
                      Object {
                        "fontFamily": "Roboto-Bold",
                      },
                      Object {
                        "fontSize": 16,
                        "lineHeight": 24,
                      },
                      Object {
                        "textAlign": "left",
                      },
                    ]
                  }
                />
              </View>
            </View>
          </View>
          <View
            style={
              Object {
                "flexDirection": "row",
              }
            }
          />
          <View
            style={
              Object {
                "flexDirection": "row",
                "justifyContent": "center",
              }
            }
          >
            <View
              style={
                Array [
                  Object {
                    "alignItems": "center",
                    "justifyContent": "center",
                    "position": "relative",
                  },
                  undefined,
                ]
              }
            >
              <View
                accessible={true}
                collapsable={false}
                focusable={true}
                hitSlop={9.333333333333332}
                onBlur={[Function]}
                onClick={[Function]}
                onFocus={[Function]}
                onResponderGrant={[Function]}
                onResponderMove={[Function]}
                onResponderRelease={[Function]}
                onResponderTerminate={[Function]}
                onResponderTerminationRequest={[Function]}
                onStartShouldSetResponder={[Function]}
                style={
                  Object {
                    "alignItems": "center",
                    "justifyContent": "center",
                  }
                }
              >
                <View
                  collapsable={false}
                  style={
                    Object {
                      "transform": Array [
                        Object {
                          "scale": 1,
                        },
                      ],
                    }
                  }
                >
                  <View
                    style={
                      Object {
                        "alignItems": "center",
                        "flexDirection": "row",
                        "justifyContent": "center",
                      }
                    }
                  >
                    <View
                      style={
                        Object {
                          "alignItems": "center",
                          "flexDirection": "row",
                          "height": 28,
                          "justifyContent": "center",
                          "overflow": "hidden",
                          "width": 28,
                        }
                      }
                    >
                      <Text
                        allowFontScaling={false}
                        selectable={false}
                        style={
                          Array [
                            Object {
                              "color": "#AEB0B8",
                              "fontSize": 25.76,
                            },
                            undefined,
                            Object {
                              "fontFamily": "Material Icons",
                              "fontStyle": "normal",
                              "fontWeight": "normal",
                            },
                            Object {},
                          ]
                        }
                      >
                        
                      </Text>
                    </View>
                  </View>
                </View>
              </View>
            </View>
          </View>
        </View>
      </View>
    </View>
    <RCTScrollView
      contentContainerStyle={
        Array [
          Object {
            "width": "100%",
          },
          Object {
            "flexGrow": 1,
            "justifyContent": "center",
          },
        ]
      }
      onContentSizeChange={[Function]}
      onLayout={[Function]}
      style={
        Object {
          "flex": 1,
        }
      }
    >
      <View>
        <View
          accessibilityLabel="touchableTextCopy"
          onLongPress={[Function]}
          style={
            Array [
              Object {
                "paddingHorizontal": 16,
              },
              Object {
                "paddingVertical": 16,
              },
            ]
          }
        >
          <View
            style={null}
          >
            <Text
              selectable={true}
              style={
                Array [
                  Object {
                    "color": "#FFFFFF",
                  },
                  Object {
                    "fontFamily": "Roboto",
                  },
                  Array [
                    Array [
                      Object {
                        "fontSize": 28,
                      },
                      Object {
                        "fontFamily": "Roboto-Medium",
                        "fontWeight": "500",
                      },
                    ],
                    Object {
                      "marginBottom": 4,
                    },
                    Object {
                      "fontFamily": "Roboto-Black",
                      "fontWeight": "700",
                    },
                  ],
                ]
              }
            >
              TITLE
            </Text>
            <Text
              selectable={false}
              style={
                Array [
                  Object {
                    "color": "#FFFFFF",
                  },
                  Object {
                    "fontFamily": "Roboto",
                  },
                  Array [
                    Object {
                      "fontSize": 28,
                    },
                    Object {
                      "fontFamily": "Roboto-Medium",
                      "fontWeight": "500",
                    },
                  ],
                ]
              }
            >
              Message
            </Text>
          </View>
          <View />
        </View>
        <View
          style={
            Array [
              Object {
                "flexDirection": "row",
                "justifyContent": "space-between",
              },
              Object {
                "padding": 8,
              },
              Object {
                "paddingHorizontal": 16,
              },
            ]
          }
        >
          <Text
            style={
              Array [
                Object {
                  "color": "#FFFFFF",
                },
                Object {
                  "fontFamily": "Roboto",
                },
                Array [
                  Object {
                    "color": "#B8C1CA",
                  },
                  Object {
                    "fontSize": 14,
                  },
                  Object {
                    "paddingVertical": 4,
                  },
                ],
              ]
            }
          >
            Mar 25 2018 · 20:51
          </Text>
        </View>
      </View>
    </RCTScrollView>
    <ExpoLinearGradient
      colors={
        Array [
          "#1A202500",
          "#1A2025FF",
        ]
      }
      style={
        Object {
          "bottom": 0,
          "height": 40,
          "position": "absolute",
          "width": "100%",
        }
      }
    />
  </View>
  <View
    style={
      Object {
        "backgroundColor": "#1F252C",
        "paddingBottom": -10,
      }
    }
  >
    <View
      style={
        Array [
          Object {
            "flexDirection": "row",
            "justifyContent": "flex-start",
          },
          Object {
            "backgroundColor": "#1F252C",
          },
          Object {
            "paddingLeft": 8,
          },
          Object {
            "borderTopWidth": 0.5,
          },
          Object {
            "borderColor": "#414C57",
          },
        ]
      }
    />
    <View>
      <View
        style={
          Array [
            Object {
              "borderTopWidth": 0.5,
              "display": "flex",
              "flexDirection": "row",
              "justifyContent": "space-around",
              "paddingHorizontal": 16,
            },
            Object {
              "borderColor": "#414C57",
            },
          ]
        }
      >
        <View
          accessible={true}
          collapsable={false}
          focusable={true}
          onBlur={[Function]}
          onClick={[Function]}
          onFocus={[Function]}
          onResponderGrant={[Function]}
          onResponderMove={[Function]}
          onResponderRelease={[Function]}
          onResponderTerminate={[Function]}
          onResponderTerminationRequest={[Function]}
          onStartShouldSetResponder={[Function]}
          style={
            Array [
              Object {
                "flex": 1,
                "flexDirection": "column",
              },
              Object {
                "margin": 4,
              },
              Object {
                "paddingVertical": 12,
              },
              Object {
                "alignItems": "center",
              },
            ]
          }
          testID="Thumb up activity button"
        >
          <View
            collapsable={false}
            style={
              Object {
                "transform": Array [
                  Object {
                    "scale": 1,
                  },
                ],
              }
            }
          >
            <View
              style={
                Array [
                  Object {
                    "alignItems": "center",
                    "flexDirection": "row",
                    "flexWrap": "nowrap",
                  },
                  Object {
                    "margin": 4,
                  },
                ]
              }
            >
              <View
                style={
                  Array [
                    undefined,
                    Object {},
                  ]
                }
              >
                <Text
                  allowFontScaling={false}
                  selectable={false}
                  style={
                    Array [
                      Object {
                        "color": "#AEB0B8",
                        "fontSize": 23.04,
                      },
                      Object {},
                      Object {
                        "fontFamily": "Material Icons",
                        "fontStyle": "normal",
                        "fontWeight": "normal",
                      },
                      Object {},
                    ]
                  }
                >
                  
                </Text>
              </View>
            </View>
          </View>
        </View>
        <View
          accessible={true}
          collapsable={false}
          focusable={true}
          onBlur={[Function]}
          onClick={[Function]}
          onFocus={[Function]}
          onResponderGrant={[Function]}
          onResponderMove={[Function]}
          onResponderRelease={[Function]}
          onResponderTerminate={[Function]}
          onResponderTerminationRequest={[Function]}
          onStartShouldSetResponder={[Function]}
          style={
            Array [
              Object {
                "flex": 1,
                "flexDirection": "column",
              },
              Object {
                "margin": 4,
              },
              Object {
                "paddingVertical": 12,
              },
              Object {
                "alignItems": "center",
              },
            ]
          }
          testID="Thumb down activity button"
        >
          <View
            collapsable={false}
            style={
              Object {
                "transform": Array [
                  Object {
                    "scale": 1,
                  },
                ],
              }
            }
          >
            <View
              style={
                Array [
                  Object {
                    "alignItems": "center",
                    "flexDirection": "row",
                    "flexWrap": "nowrap",
                  },
                  Object {
                    "margin": 4,
                  },
                ]
              }
            >
              <View
                style={
                  Array [
                    undefined,
                    Object {},
                  ]
                }
              >
                <Text
                  allowFontScaling={false}
                  selectable={false}
                  style={
                    Array [
                      Object {
                        "color": "#AEB0B8",
                        "fontSize": 23.04,
                      },
                      Object {},
                      Object {
                        "fontFamily": "Material Icons",
                        "fontStyle": "normal",
                        "fontWeight": "normal",
                      },
                      Object {},
                    ]
                  }
                >
                  
                </Text>
              </View>
            </View>
          </View>
        </View>
        <View
          style={
            Array [
              Object {
                "alignItems": "center",
                "justifyContent": "center",
                "position": "relative",
              },
              undefined,
              Array [
                Object {
                  "flex": 1,
                  "flexDirection": "column",
                },
                Object {
                  "margin": 4,
                },
                Object {
                  "paddingVertical": 12,
                },
                Object {
                  "alignItems": "center",
                },
              ],
            ]
          }
        >
          <View
            accessible={true}
            collapsable={false}
            focusable={true}
            hitSlop={6.666666666666666}
            onBlur={[Function]}
            onClick={[Function]}
            onFocus={[Function]}
            onResponderGrant={[Function]}
            onResponderMove={[Function]}
            onResponderRelease={[Function]}
            onResponderTerminate={[Function]}
            onResponderTerminationRequest={[Function]}
            onStartShouldSetResponder={[Function]}
            style={
              Array [
                Object {
                  "alignItems": "center",
                  "justifyContent": "center",
                },
                Object {
                  "alignItems": "center",
                  "bottom": 0,
                  "justifyContent": "center",
                  "left": 0,
                  "position": "absolute",
                  "right": 0,
                  "top": 0,
                },
              ]
            }
            testID=""
          >
            <View
              collapsable={false}
              style={
                Object {
                  "transform": Array [
                    Object {
                      "scale": 1,
                    },
                  ],
                }
              }
            >
              <View
                style={
                  Object {
                    "alignItems": "center",
                    "flexDirection": "row",
                    "justifyContent": "center",
                  }
                }
              >
                <View
                  style={
                    Object {
                      "alignItems": "center",
                      "flexDirection": "row",
                      "height": 20,
                      "justifyContent": "center",
                      "overflow": "hidden",
                      "width": 20,
                    }
                  }
                >
                  <Text
                    allowFontScaling={false}
                    selectable={false}
                    style={
                      Array [
                        Object {
                          "color": "#AEB0B8",
                          "fontSize": 18.400000000000002,
                        },
                        Object {
                          "marginTop": 2,
                        },
                        Object {
                          "fontFamily": "Material Design Icons",
                          "fontStyle": "normal",
                          "fontWeight": "normal",
                        },
                        Object {},
                      ]
                    }
                  >
                    󰍡
                  </Text>
                </View>
                <View
                  style={
                    Array [
                      Object {
                        "flexDirection": "row",
                        "justifyContent": "center",
                      },
                      Object {
                        "marginLeft": 4,
                      },
                    ]
                  }
                >
                  <Text
                    style={
                      Array [
                        Object {
                          "color": "#FFFFFF",
                        },
                        Object {
                          "fontFamily": "Roboto",
                        },
                        Array [
                          Array [
                            Object {
                              "color": "#AEB0B8",
                            },
                            Object {
                              "fontSize": 14,
                            },
                            Object {
                              "fontFamily": "Roboto-Medium",
                              "fontWeight": "500",
                            },
                          ],
                          undefined,
                        ],
                      ]
                    }
                  />
                </View>
              </View>
            </View>
          </View>
        </View>
        <View
          style={
            Array [
              Object {
                "alignItems": "center",
                "justifyContent": "center",
                "position": "relative",
              },
              undefined,
              Array [
                Object {
                  "flex": 1,
                  "flexDirection": "column",
                },
                Object {
                  "margin": 4,
                },
                Object {
                  "paddingVertical": 12,
                },
                Object {
                  "alignItems": "center",
                },
              ],
            ]
          }
        >
          <View
            accessibilityState={
              Object {
                "disabled": false,
              }
            }
            accessible={true}
            collapsable={false}
            focusable={true}
            hitSlop={6.666666666666666}
            onBlur={[Function]}
            onClick={[Function]}
            onFocus={[Function]}
            onResponderGrant={[Function]}
            onResponderMove={[Function]}
            onResponderRelease={[Function]}
            onResponderTerminate={[Function]}
            onResponderTerminationRequest={[Function]}
            onStartShouldSetResponder={[Function]}
            style={
              Array [
                Object {
                  "alignItems": "center",
                  "justifyContent": "center",
                },
                Object {
                  "alignItems": "center",
                  "bottom": 0,
                  "justifyContent": "center",
                  "left": 0,
                  "position": "absolute",
                  "right": 0,
                  "top": 0,
                },
              ]
            }
            testID="Remind activity button"
          >
            <View
              collapsable={false}
              style={
                Object {
                  "transform": Array [
                    Object {
                      "scale": 1,
                    },
                  ],
                }
              }
            >
              <View
                style={
                  Object {
                    "alignItems": "center",
                    "flexDirection": "row",
                    "justifyContent": "center",
                  }
                }
              >
                <View
                  style={
                    Object {
                      "alignItems": "center",
                      "flexDirection": "row",
                      "height": 20,
                      "justifyContent": "center",
                      "overflow": "hidden",
                      "width": 20,
                    }
                  }
                >
                  <Text
                    allowFontScaling={false}
                    selectable={false}
                    style={
                      Array [
                        Object {
                          "color": "#AEB0B8",
                          "fontSize": 20.8,
                        },
                        Object {
                          "marginTop": -1,
                        },
                        Object {
                          "fontFamily": "Material Design Icons",
                          "fontStyle": "normal",
                          "fontWeight": "normal",
                        },
                        Object {},
                      ]
                    }
                  >
                    󰑖
                  </Text>
                </View>
              </View>
            </View>
          </View>
        </View>
        <View
          style={
            Array [
              Object {
                "alignItems": "center",
                "justifyContent": "center",
                "position": "relative",
              },
              undefined,
              Array [
                Object {
                  "flex": 1,
                  "flexDirection": "column",
                },
                Object {
                  "margin": 4,
                },
                Object {
                  "paddingVertical": 12,
                },
                Object {
                  "alignItems": "center",
                },
              ],
            ]
          }
        >
          <View
            accessible={true}
            collapsable={false}
            focusable={true}
            hitSlop={6.666666666666666}
            onBlur={[Function]}
            onClick={[Function]}
            onFocus={[Function]}
            onResponderGrant={[Function]}
            onResponderMove={[Function]}
            onResponderRelease={[Function]}
            onResponderTerminate={[Function]}
            onResponderTerminationRequest={[Function]}
            onStartShouldSetResponder={[Function]}
            style={
              Array [
                Object {
                  "alignItems": "center",
                  "justifyContent": "center",
                },
                Object {
                  "alignItems": "center",
                  "bottom": 0,
                  "justifyContent": "center",
                  "left": 0,
                  "position": "absolute",
                  "right": 0,
                  "top": 0,
                },
              ]
            }
          >
            <View
              collapsable={false}
              style={
                Object {
                  "transform": Array [
                    Object {
                      "scale": 1,
                    },
                  ],
                }
              }
            >
              <View
                style={
                  Object {
                    "alignItems": "center",
                    "flexDirection": "row",
                    "justifyContent": "center",
                  }
                }
              >
                <View
                  style={
                    Object {
                      "alignItems": "center",
                      "flexDirection": "row",
                      "height": 20,
                      "justifyContent": "center",
                      "overflow": "hidden",
                      "width": 20,
                    }
                  }
                >
                  <Text
                    allowFontScaling={false}
                    selectable={false}
                    style={
                      Array [
                        Object {
                          "color": "#AEB0B8",
                          "fontSize": 20,
                        },
                        Object {
                          "marginTop": -2,
                        },
                        Object {
                          "fontFamily": "Material Icons",
                          "fontStyle": "normal",
                          "fontWeight": "normal",
                        },
                        Object {},
                      ]
                    }
                  >
                    
                  </Text>
                </View>
              </View>
            </View>
          </View>
        </View>
      </View>
    </View>
  </View>
  <InteractionsBottomSheet
    entity={
      Object {
        "access_id": "",
        "allow_comments": true,
        "attachment_guid": false,
        "blurb": false,
        "can": [MockFunction] {
          "calls": Array [
            Array [
              "view",
              true,
            ],
            Array [
              "vote",
            ],
            Array [
              "vote",
            ],
            Array [
              "remind",
            ],
          ],
          "results": Array [
            Object {
              "type": "return",
              "value": true,
            },
            Object {
              "type": "return",
              "value": true,
            },
            Object {
              "type": "return",
              "value": true,
            },
            Object {
              "type": "return",
              "value": true,
            },
          ],
        },
        "comments:count": undefined,
        "containerObj": undefined,
        "container_guid": "activityguid0",
        "custom_data": false,
        "custom_type": false,
        "description": "Congratulations! ",
        "edited": "",
        "entity_guid": "",
        "getLockType": [Function],
        "guid": "activityguid0",
        "impressions": 0,
        "isOwner": [Function],
        "is_visible": false,
        "listenForMetricsDebounced": [Function],
        "mature": false,
        "mature_visibility": false,
        "message": "Message",
        "ownerObj": Object {
          "__list": null,
          "access_id": "",
          "allow_comments": true,
          "blocked": undefined,
          "canary": false,
          "confirmEmail": [Function],
          "disable_autoplay_videos": undefined,
          "disabled_boost": undefined,
          "email_confirmed": false,
          "eth_wallet": "",
          "founder": false,
          "groupsCount": 0,
          "guid": "824853017709780997",
          "impressions": undefined,
          "isOwner": [Function],
          "is_admin": false,
          "last_accepted_tos": 0,
          "mature": false,
          "mature_visibility": false,
          "mode": 0,
          "nsfw": Array [],
          "onchain_booster": 0,
          "pending_subscribe": false,
          "permissions": Object {},
          "plus": false,
          "plus_method": "tokens",
          "pro": false,
          "pro_method": "tokens",
          "rewards": false,
          "subscribed": undefined,
          "subscriber": false,
          "subscribers_count": undefined,
          "subscriptions_count": 0,
          "subtype": false,
          "tags": Array [],
          "time_created": "1522036284",
          "time_updated": "",
          "type": "user",
          "urn": "",
          "username": "",
          "verified": false,
          "wire_rewards": undefined,
        },
        "owner_guid": "824853017709780997",
        "parent_guid": "838106762591510528",
        "paywall": "",
        "paywall_unlocked": false,
        "perma_url": false,
        "permissions": Object {},
        "pinned": false,
        "quotes": 0,
        "reminds": 0,
        "rowKey": "something0",
        "subtype": "",
        "thumbnail_src": false,
        "thumbs:down:count": undefined,
        "thumbs:down:user_guids": undefined,
        "thumbs:up:count": undefined,
        "thumbs:up:user_guids": undefined,
        "time_created": "1522036284",
        "time_updated": "",
        "title": "TITLE",
        "type": "activity",
        "urn": "",
        "username": "",
        "wire_totals": Object {
          "tokens": 1000000000000000000,
        },
      }
    }
  />
  <InteractionsBottomSheet
    entity={
      Object {
        "access_id": "",
        "allow_comments": true,
        "attachment_guid": false,
        "blurb": false,
        "can": [MockFunction] {
          "calls": Array [
            Array [
              "view",
              true,
            ],
            Array [
              "vote",
            ],
            Array [
              "vote",
            ],
            Array [
              "remind",
            ],
          ],
          "results": Array [
            Object {
              "type": "return",
              "value": true,
            },
            Object {
              "type": "return",
              "value": true,
            },
            Object {
              "type": "return",
              "value": true,
            },
            Object {
              "type": "return",
              "value": true,
            },
          ],
        },
        "comments:count": undefined,
        "containerObj": undefined,
        "container_guid": "activityguid0",
        "custom_data": false,
        "custom_type": false,
        "description": "Congratulations! ",
        "edited": "",
        "entity_guid": "",
        "getLockType": [Function],
        "guid": "activityguid0",
        "impressions": 0,
        "isOwner": [Function],
        "is_visible": false,
        "listenForMetricsDebounced": [Function],
        "mature": false,
        "mature_visibility": false,
        "message": "Message",
        "ownerObj": Object {
          "__list": null,
          "access_id": "",
          "allow_comments": true,
          "blocked": undefined,
          "canary": false,
          "confirmEmail": [Function],
          "disable_autoplay_videos": undefined,
          "disabled_boost": undefined,
          "email_confirmed": false,
          "eth_wallet": "",
          "founder": false,
          "groupsCount": 0,
          "guid": "824853017709780997",
          "impressions": undefined,
          "isOwner": [Function],
          "is_admin": false,
          "last_accepted_tos": 0,
          "mature": false,
          "mature_visibility": false,
          "mode": 0,
          "nsfw": Array [],
          "onchain_booster": 0,
          "pending_subscribe": false,
          "permissions": Object {},
          "plus": false,
          "plus_method": "tokens",
          "pro": false,
          "pro_method": "tokens",
          "rewards": false,
          "subscribed": undefined,
          "subscriber": false,
          "subscribers_count": undefined,
          "subscriptions_count": 0,
          "subtype": false,
          "tags": Array [],
          "time_created": "1522036284",
          "time_updated": "",
          "type": "user",
          "urn": "",
          "username": "",
          "verified": false,
          "wire_rewards": undefined,
        },
        "owner_guid": "824853017709780997",
        "parent_guid": "838106762591510528",
        "paywall": "",
        "paywall_unlocked": false,
        "perma_url": false,
        "permissions": Object {},
        "pinned": false,
        "quotes": 0,
        "reminds": 0,
        "rowKey": "something0",
        "subtype": "",
        "thumbnail_src": false,
        "thumbs:down:count": undefined,
        "thumbs:down:user_guids": undefined,
        "thumbs:up:count": undefined,
        "thumbs:up:user_guids": undefined,
        "time_created": "1522036284",
        "time_updated": "",
        "title": "TITLE",
        "type": "activity",
        "urn": "",
        "username": "",
        "wire_totals": Object {
          "tokens": 1000000000000000000,
        },
      }
    }
  />
  <InteractionsBottomSheet
    entity={
      Object {
        "access_id": "",
        "allow_comments": true,
        "attachment_guid": false,
        "blurb": false,
        "can": [MockFunction] {
          "calls": Array [
            Array [
              "view",
              true,
            ],
            Array [
              "vote",
            ],
            Array [
              "vote",
            ],
            Array [
              "remind",
            ],
          ],
          "results": Array [
            Object {
              "type": "return",
              "value": true,
            },
            Object {
              "type": "return",
              "value": true,
            },
            Object {
              "type": "return",
              "value": true,
            },
            Object {
              "type": "return",
              "value": true,
            },
          ],
        },
        "comments:count": undefined,
        "containerObj": undefined,
        "container_guid": "activityguid0",
        "custom_data": false,
        "custom_type": false,
        "description": "Congratulations! ",
        "edited": "",
        "entity_guid": "",
        "getLockType": [Function],
        "guid": "activityguid0",
        "impressions": 0,
        "isOwner": [Function],
        "is_visible": false,
        "listenForMetricsDebounced": [Function],
        "mature": false,
        "mature_visibility": false,
        "message": "Message",
        "ownerObj": Object {
          "__list": null,
          "access_id": "",
          "allow_comments": true,
          "blocked": undefined,
          "canary": false,
          "confirmEmail": [Function],
          "disable_autoplay_videos": undefined,
          "disabled_boost": undefined,
          "email_confirmed": false,
          "eth_wallet": "",
          "founder": false,
          "groupsCount": 0,
          "guid": "824853017709780997",
          "impressions": undefined,
          "isOwner": [Function],
          "is_admin": false,
          "last_accepted_tos": 0,
          "mature": false,
          "mature_visibility": false,
          "mode": 0,
          "nsfw": Array [],
          "onchain_booster": 0,
          "pending_subscribe": false,
          "permissions": Object {},
          "plus": false,
          "plus_method": "tokens",
          "pro": false,
          "pro_method": "tokens",
          "rewards": false,
          "subscribed": undefined,
          "subscriber": false,
          "subscribers_count": undefined,
          "subscriptions_count": 0,
          "subtype": false,
          "tags": Array [],
          "time_created": "1522036284",
          "time_updated": "",
          "type": "user",
          "urn": "",
          "username": "",
          "verified": false,
          "wire_rewards": undefined,
        },
        "owner_guid": "824853017709780997",
        "parent_guid": "838106762591510528",
        "paywall": "",
        "paywall_unlocked": false,
        "perma_url": false,
        "permissions": Object {},
        "pinned": false,
        "quotes": 0,
        "reminds": 0,
        "rowKey": "something0",
        "subtype": "",
        "thumbnail_src": false,
        "thumbs:down:count": undefined,
        "thumbs:down:user_guids": undefined,
        "thumbs:up:count": undefined,
        "thumbs:up:user_guids": undefined,
        "time_created": "1522036284",
        "time_updated": "",
        "title": "TITLE",
        "type": "activity",
        "urn": "",
        "username": "",
        "wire_totals": Object {
          "tokens": 1000000000000000000,
        },
      }
    }
  />
  <InteractionsBottomSheet
    entity={
      Object {
        "access_id": "",
        "allow_comments": true,
        "attachment_guid": false,
        "blurb": false,
        "can": [MockFunction] {
          "calls": Array [
            Array [
              "view",
              true,
            ],
            Array [
              "vote",
            ],
            Array [
              "vote",
            ],
            Array [
              "remind",
            ],
          ],
          "results": Array [
            Object {
              "type": "return",
              "value": true,
            },
            Object {
              "type": "return",
              "value": true,
            },
            Object {
              "type": "return",
              "value": true,
            },
            Object {
              "type": "return",
              "value": true,
            },
          ],
        },
        "comments:count": undefined,
        "containerObj": undefined,
        "container_guid": "activityguid0",
        "custom_data": false,
        "custom_type": false,
        "description": "Congratulations! ",
        "edited": "",
        "entity_guid": "",
        "getLockType": [Function],
        "guid": "activityguid0",
        "impressions": 0,
        "isOwner": [Function],
        "is_visible": false,
        "listenForMetricsDebounced": [Function],
        "mature": false,
        "mature_visibility": false,
        "message": "Message",
        "ownerObj": Object {
          "__list": null,
          "access_id": "",
          "allow_comments": true,
          "blocked": undefined,
          "canary": false,
          "confirmEmail": [Function],
          "disable_autoplay_videos": undefined,
          "disabled_boost": undefined,
          "email_confirmed": false,
          "eth_wallet": "",
          "founder": false,
          "groupsCount": 0,
          "guid": "824853017709780997",
          "impressions": undefined,
          "isOwner": [Function],
          "is_admin": false,
          "last_accepted_tos": 0,
          "mature": false,
          "mature_visibility": false,
          "mode": 0,
          "nsfw": Array [],
          "onchain_booster": 0,
          "pending_subscribe": false,
          "permissions": Object {},
          "plus": false,
          "plus_method": "tokens",
          "pro": false,
          "pro_method": "tokens",
          "rewards": false,
          "subscribed": undefined,
          "subscriber": false,
          "subscribers_count": undefined,
          "subscriptions_count": 0,
          "subtype": false,
          "tags": Array [],
          "time_created": "1522036284",
          "time_updated": "",
          "type": "user",
          "urn": "",
          "username": "",
          "verified": false,
          "wire_rewards": undefined,
        },
        "owner_guid": "824853017709780997",
        "parent_guid": "838106762591510528",
        "paywall": "",
        "paywall_unlocked": false,
        "perma_url": false,
        "permissions": Object {},
        "pinned": false,
        "quotes": 0,
        "reminds": 0,
        "rowKey": "something0",
        "subtype": "",
        "thumbnail_src": false,
        "thumbs:down:count": undefined,
        "thumbs:down:user_guids": undefined,
        "thumbs:up:count": undefined,
        "thumbs:up:user_guids": undefined,
        "time_created": "1522036284",
        "time_updated": "",
        "title": "TITLE",
        "type": "activity",
        "urn": "",
        "username": "",
        "wire_totals": Object {
          "tokens": 1000000000000000000,
        },
      }
    }
  />
  <CommentBottomSheet
    autoOpen={false}
    commentsStore={
      CommentsStore {
        "analyticContexts": Array [
          undefined,
          undefined,
        ],
        "attachment": AttachmentStore {
          "assetId": "",
          "cancelOrDelete": [Function],
          "ephemeral": true,
          "filename": "",
          "guid": "",
          "onClear": undefined,
          "path": "",
          "transcoding": false,
        },
        "comments": Array [],
        "embed": RichEmbedStore {
          "_richEmbedFetchTimer": null,
          "clearRichEmbedAction": [Function],
          "richEmbedUrl": "",
          "setRichEmbedPromise": null,
        },
        "entity": Object {
          "access_id": "",
          "allow_comments": true,
          "attachment_guid": false,
          "blurb": false,
          "can": [MockFunction] {
            "calls": Array [
              Array [
                "view",
                true,
              ],
              Array [
                "vote",
              ],
              Array [
                "vote",
              ],
              Array [
                "remind",
              ],
            ],
            "results": Array [
              Object {
                "type": "return",
                "value": true,
              },
              Object {
                "type": "return",
                "value": true,
              },
              Object {
                "type": "return",
                "value": true,
              },
              Object {
                "type": "return",
                "value": true,
              },
            ],
          },
          "comments:count": undefined,
          "containerObj": undefined,
          "container_guid": "activityguid0",
          "custom_data": false,
          "custom_type": false,
          "description": "Congratulations! ",
          "edited": "",
          "entity_guid": "",
          "getLockType": [Function],
          "guid": "activityguid0",
          "impressions": 0,
          "isOwner": [Function],
          "is_visible": false,
          "listenForMetricsDebounced": [Function],
          "mature": false,
          "mature_visibility": false,
          "message": "Message",
          "ownerObj": Object {
            "__list": null,
            "access_id": "",
            "allow_comments": true,
            "blocked": undefined,
            "canary": false,
            "confirmEmail": [Function],
            "disable_autoplay_videos": undefined,
            "disabled_boost": undefined,
            "email_confirmed": false,
            "eth_wallet": "",
            "founder": false,
            "groupsCount": 0,
            "guid": "824853017709780997",
            "impressions": undefined,
            "isOwner": [Function],
            "is_admin": false,
            "last_accepted_tos": 0,
            "mature": false,
            "mature_visibility": false,
            "mode": 0,
            "nsfw": Array [],
            "onchain_booster": 0,
            "pending_subscribe": false,
            "permissions": Object {},
            "plus": false,
            "plus_method": "tokens",
            "pro": false,
            "pro_method": "tokens",
            "rewards": false,
            "subscribed": undefined,
            "subscriber": false,
            "subscribers_count": undefined,
            "subscriptions_count": 0,
            "subtype": false,
            "tags": Array [],
            "time_created": "1522036284",
            "time_updated": "",
            "type": "user",
            "urn": "",
            "username": "",
            "verified": false,
            "wire_rewards": undefined,
          },
          "owner_guid": "824853017709780997",
          "parent_guid": "838106762591510528",
          "paywall": "",
          "paywall_unlocked": false,
          "perma_url": false,
          "permissions": Object {},
          "pinned": false,
          "quotes": 0,
          "reminds": 0,
          "rowKey": "something0",
          "subtype": "",
          "thumbnail_src": false,
          "thumbs:down:count": undefined,
          "thumbs:down:user_guids": undefined,
          "thumbs:up:count": undefined,
          "thumbs:up:user_guids": undefined,
          "time_created": "1522036284",
          "time_updated": "",
          "title": "TITLE",
          "type": "activity",
          "urn": "",
          "username": "",
          "wire_totals": Object {
            "tokens": 1000000000000000000,
          },
        },
        "errorLoadingNext": false,
        "errorLoadingPrevious": false,
        "focusedCommentUrn": null,
        "level": 0,
        "loadNext": "",
        "loadPrevious": "",
        "loaded": false,
        "loadingNext": false,
        "loadingPrevious": false,
        "mature": 0,
        "onAttachedMedia": [Function],
        "parent": null,
        "post": [Function],
        "refreshing": false,
        "reversed": true,
        "saving": false,
        "selectMediaType": [Function],
        "selection": Object {
          "end": 0,
          "start": 0,
        },
        "showInput": false,
        "showSpamComments": [Function],
        "socketRoomName": "",
        "spamComments": Array [],
        "spamCommentsShown": false,
        "text": "",
      }
    }
  />
</View>
`;
