// Jest Snapshot v1, https://goo.gl/fbAQLP

exports[`LoginForm component should renders correctly 1`] = `
<View
  style={
    Object {
      "flex": 1,
    }
  }
>
  <View
    accessible={true}
    collapsable={false}
    focusable={true}
    onBlur={[Function]}
    onClick={[Function]}
    onFocus={[Function]}
    onResponderGrant={[Function]}
    onResponderMove={[Function]}
    onResponderRelease={[Function]}
    onResponderTerminate={[Function]}
    onResponderTerminationRequest={[Function]}
    onStartShouldSetResponder={[Function]}
  >
    <View
      style={
        Array [
          Object {
            "paddingHorizontal": 16,
          },
          Object {
            "paddingTop": 8,
          },
          Object {
            "backgroundColor": "#1A2025",
          },
          Object {
            "borderTopWidth": 1,
          },
          null,
          Object {
            "borderColor": "#414C57",
          },
          undefined,
        ]
      }
    >
      <View
        accessible={true}
        collapsable={false}
        focusable={true}
        onBlur={[Function]}
        onClick={[Function]}
        onFocus={[Function]}
        onResponderGrant={[Function]}
        onResponderMove={[Function]}
        onResponderRelease={[Function]}
        onResponderTerminate={[Function]}
        onResponderTerminationRequest={[Function]}
        onStartShouldSetResponder={[Function]}
      >
        <View
          style={
            Object {
              "paddingBottom": 10,
              "paddingTop": 5,
            }
          }
        >
          <View>
            <View
              style={
                Object {
                  "alignItems": "stretch",
                  "flexDirection": "row",
                }
              }
            >
              <Text
                style={
                  Array [
                    Object {
                      "color": "#FFFFFF",
                    },
                    Object {
                      "fontFamily": "Roboto",
                    },
                    Array [
                      Object {
                        "fontFamily": "Roboto",
                        "fontSize": 16,
                        "fontWeight": "400",
                        "marginBottom": 0,
                      },
                      Object {
                        "color": "#B8C1CA",
                      },
                      Array [
                        Object {
                          "color": "#B8C1CA",
                        },
                        Object {
                          "fontSize": 16,
                        },
                        Object {
                          "paddingLeft": 1,
                        },
                        undefined,
                      ],
                    ],
                  ]
                }
              >
                Username
              </Text>
            </View>
          </View>
          <TextInput
            autoCapitalize="none"
            autoComplete="username"
            autoCorrect={false}
            autoFocus={true}
            keyboardAppearance="dark"
            keyboardType="default"
            labelStyle={
              Array [
                Object {
                  "color": "#B8C1CA",
                },
                Object {
                  "fontSize": 16,
                },
                Object {
                  "paddingLeft": 1,
                },
                undefined,
              ]
            }
            maxLength={50}
            onChangeText={[Function]}
            placeholderTextColor="#797B82"
            returnKeyLabel="Next"
            returnKeyType="next"
            style={
              Array [
                Object {
                  "backgroundColor": "transparent",
                  "borderColor": "#414C57",
                  "borderRadius": 2,
                  "borderWidth": 1,
                  "color": "#FFFFFF",
                  "fontFamily": "Roboto",
                  "fontSize": 16,
                  "lineHeight": 21,
                },
                Array [
                  Object {
                    "borderWidth": 0,
                    "marginBottom": 7,
                    "paddingHorizontal": 0,
                    "paddingVertical": 6,
                  },
                  Object {
                    "paddingLeft": 1,
                  },
                  Object {
                    "fontSize": 18,
                  },
                  Object {
                    "color": "#FFFFFF",
                  },
                  undefined,
                ],
              ]
            }
            testID="usernameLoginInput"
            textContentType="username"
            underlineColorAndroid="transparent"
            value=""
          />
        </View>
      </View>
    </View>
    <View
      style={
        Object {
          "marginBottom": 16,
        }
      }
    >
      <View>
        <View
          style={
            Array [
              Object {
                "paddingHorizontal": 16,
              },
              Object {
                "paddingTop": 8,
              },
              Object {
                "backgroundColor": "#1A2025",
              },
              Object {
                "borderTopWidth": 1,
              },
              Object {
                "borderBottomWidth": 1,
              },
              Object {
                "borderColor": "#414C57",
              },
              undefined,
            ]
          }
        >
          <View
            accessible={true}
            collapsable={false}
            focusable={true}
            onBlur={[Function]}
            onClick={[Function]}
            onFocus={[Function]}
            onResponderGrant={[Function]}
            onResponderMove={[Function]}
            onResponderRelease={[Function]}
            onResponderTerminate={[Function]}
            onResponderTerminationRequest={[Function]}
            onStartShouldSetResponder={[Function]}
          >
            <View
              style={
                Object {
                  "paddingBottom": 10,
                  "paddingTop": 5,
                }
              }
            >
              <View>
                <View
                  style={
                    Object {
                      "alignItems": "stretch",
                      "flexDirection": "row",
                    }
                  }
                >
                  <Text
                    style={
                      Array [
                        Object {
                          "color": "#FFFFFF",
                        },
                        Object {
                          "fontFamily": "Roboto",
                        },
                        Array [
                          Object {
                            "fontFamily": "Roboto",
                            "fontSize": 16,
                            "fontWeight": "400",
                            "marginBottom": 0,
                          },
                          Object {
                            "color": "#B8C1CA",
                          },
                          Array [
                            Object {
                              "color": "#B8C1CA",
                            },
                            Object {
                              "fontSize": 16,
                            },
                            Object {
                              "paddingLeft": 1,
                            },
                            undefined,
                          ],
                        ],
                      ]
                    }
                  >
                    Password
                  </Text>
                </View>
              </View>
              <TextInput
                autoCapitalize="none"
                autoComplete="password"
                keyboardAppearance="dark"
                labelStyle={
                  Array [
                    Object {
                      "color": "#B8C1CA",
                    },
                    Object {
                      "fontSize": 16,
                    },
                    Object {
                      "paddingLeft": 1,
                    },
                    undefined,
                  ]
                }
                multiline={false}
                onChangeText={[Function]}
                onSubmitEditing={[Function]}
                placeholderTextColor="#797B82"
                returnKeyLabel="Submit"
                returnKeyType="send"
                secureTextEntry={true}
                style={
                  Array [
                    Object {
                      "backgroundColor": "transparent",
                      "borderColor": "#414C57",
                      "borderRadius": 2,
                      "borderWidth": 1,
                      "color": "#FFFFFF",
                      "fontFamily": "Roboto",
                      "fontSize": 16,
                      "lineHeight": 21,
                    },
                    Array [
                      Object {
                        "borderWidth": 0,
                        "marginBottom": 7,
                        "paddingHorizontal": 0,
                        "paddingVertical": 6,
                      },
                      Object {
                        "paddingLeft": 1,
                      },
                      Object {
                        "fontSize": 18,
                      },
                      Object {
                        "color": "#FFFFFF",
                      },
                      undefined,
                    ],
                  ]
                }
                testID="userPasswordInput"
                textContentType="password"
                underlineColorAndroid="transparent"
                value=""
              />
            </View>
          </View>
        </View>
        <Text
          allowFontScaling={false}
          onPress={[Function]}
          selectable={false}
          style={
            Array [
              Object {
                "color": undefined,
                "fontSize": 25,
              },
              Array [
                Object {
                  "position": "absolute",
                  "right": 12,
                  "top": 30,
                },
                Object {
                  "color": "#B8C1CA",
                },
              ],
              Object {
                "fontFamily": "Ionicons",
                "fontStyle": "normal",
                "fontWeight": "normal",
              },
              Object {},
            ]
          }
        >
          
        </Text>
      </View>
    </View>
    <View
      style={
        Object {
          "marginHorizontal": 20,
          "marginTop": 24,
        }
      }
    >
      <View
        accessible={true}
        collapsable={false}
        focusable={true}
        onBlur={[Function]}
        onClick={[Function]}
        onFocus={[Function]}
        onResponderGrant={[Function]}
        onResponderMove={[Function]}
        onResponderRelease={[Function]}
        onResponderTerminate={[Function]}
        onResponderTerminationRequest={[Function]}
        onStartShouldSetResponder={[Function]}
        style={
          Object {
            "alignSelf": "stretch",
          }
        }
        testID="loginButton"
      >
        <View
          style={
            Array [
              Object {
                "alignItems": "center",
                "backgroundColor": "transparent",
                "borderRadius": 100,
                "flexDirection": "column",
                "justifyContent": "center",
                "overflow": "hidden",
              },
              Object {
                "backgroundColor": "transparent",
              },
              Object {
                "minHeight": 42,
                "paddingHorizontal": 24,
                "paddingVertical": 2,
              },
              undefined,
              undefined,
              undefined,
              false,
            ]
          }
        >
          <View
            style={
              Object {
                "alignItems": "center",
                "borderColor": "#1B85D6",
                "borderRadius": 100,
                "borderWidth": 1,
                "bottom": 0,
                "justifyContent": "center",
                "left": 0,
                "position": "absolute",
                "right": 0,
                "top": 0,
              }
            }
          >
            <View
              collapsable={false}
              style={
                Object {
                  "transform": Array [
                    Object {
                      "scale": 0,
                    },
                  ],
                }
              }
            >
              <ActivityIndicator
                color="#FFFFFF"
                size="small"
              />
            </View>
          </View>
          <View
            collapsable={false}
            style={
              Object {
                "backgroundColor": "rgba(0, 0, 0, 0.05)",
                "bottom": 0,
                "left": 0,
                "opacity": 0,
                "position": "absolute",
                "right": 0,
                "top": 0,
              }
            }
          />
          <View
            collapsable={false}
            style={
              Object {
                "transform": Array [
                  Object {
                    "scale": 1,
                  },
                ],
              }
            }
          >
            <Text
              numberOfLines={1}
              style={
                Array [
                  Object {
                    "color": "#FFFFFF",
                  },
                  Object {
                    "fontFamily": "Roboto-Medium",
                  },
                  Object {
                    "fontSize": 18,
                    "lineHeight": 24,
                  },
                  Object {
                    "textAlign": "left",
                  },
                ]
              }
            >
              Login
            </Text>
          </View>
        </View>
      </View>
    </View>
    <View
      style={
        Object {
          "alignItems": "center",
          "flexDirection": "row",
          "justifyContent": "center",
          "marginTop": 32,
        }
      }
    >
      <Text
        accessible={true}
        focusable={true}
        hitSlop={
          Object {
            "bottom": 4,
            "left": 4,
            "right": 4,
            "top": 4,
          }
        }
        onClick={[Function]}
        onResponderGrant={[Function]}
        onResponderMove={[Function]}
        onResponderRelease={[Function]}
        onResponderTerminate={[Function]}
        onResponderTerminationRequest={[Function]}
        onStartShouldSetResponder={[Function]}
        style={
          Array [
            Object {
              "color": "#FFFFFF",
            },
            Object {
              "fontFamily": "Roboto",
            },
            Object {
              "fontSize": 16,
              "lineHeight": 24,
            },
            Object {
              "textAlign": "left",
            },
          ]
        }
      >
        Forgot your password?
      </Text>
    </View>
  </View>
</View>
`;
