// Jest Snapshot v1, https://goo.gl/fbAQLP

exports[`Explicit text component renders correctly 1`] = `
<View
  style={null}
>
  <Tags
    style={
      Array [
        undefined,
        Object {
          "marginBottom": 4,
        },
        Object {
          "fontFamily": "Roboto-Black",
          "fontWeight": "700",
        },
      ]
    }
  >
    TITLE
  </Tags>
  <Tags>
    Message
  </Tags>
</View>
`;
